{
  "name": "ValGenesis",
  "version": "0.0.1",
  "author": "Ionic Framework",
  "homepage": "https://ionicframework.com/",
  "main": "src/electron-starter.js",
  "scripts": {
    "ng": "ng",
    "start": "ng serve",
    "build": "ng build",
    "test": "ng test",
    "lint": "ng lint",
    "e2e": "ng e2e",
    "electron": "electron .",
    "electron-serve": "ng build --prod && electron .",
    "mac-release": "electron-packager . --overwrite --platform=darwin --arch=x64 --icon=src/assets/icon.icns --prune=true --out=release-builds",
    "windows-release": "electron-packager . ValGenesis-app --overwrite  --platform=win32 --arch=x64 --icon=src/assets/icon.ico --prune=true --out=release-builds --version-string.CompanyName=Valgenesis --version-string.FileDescription=CE --version-string.ProductName='ValGenesis App'",
    "linux-release": "electron-packager . electron-tutorial-app --overwrite --asar=true --platform=linux --arch=x64 --icon=src/assets/icon.png --prune=true --out=release-builds",
    "mac-build": "electron-installer-dmg ./release-builds/ionic-desktop-darwin-x64/ionic-desktop.app builds/ionic-desktop",
    "windows-build": "node src/windows-build.js",
    "clean": "rimraf dist && rimraf release",
    "build:app": "npm run build:app && cp-cli www ../packageapp/dist/"
  },
  "private": true,
  "dependencies": {
    "@angular/animations": "^8.2.14",
    "@angular/common": "^7.2.16",
    "@angular/core": "^7.2.16",
    "@angular/forms": "^7.2.16",
    "@angular/http": "^7.2.16",
    "@angular/platform-browser": "^7.2.16",
    "@angular/platform-browser-dynamic": "^7.2.16",
    "@angular/router": "^7.2.16",
    "@capacitor/cli": "^1.5.0",
    "@capacitor/core": "^1.5.0",
    "@ionic-native/barcode-scanner": "^5.19.1",
    "@ionic-native/base64": "^5.19.1",
    "@ionic-native/camera": "^5.19.1",
    "@ionic-native/core": "^5.19.1",
    "@ionic-native/device": "^5.19.1",
    "@ionic-native/file": "^5.19.1",
    "@ionic-native/file-chooser": "^5.19.1",
    "@ionic-native/file-picker": "^5.19.1",
    "@ionic-native/file-transfer": "^5.19.1",
    "@ionic-native/media-capture": "^5.19.1",
    "@ionic-native/network": "^5.19.1",
    "@ionic-native/splash-screen": "^5.19.1",
    "@ionic-native/status-bar": "^5.19.1",
    "@ionic-native/toast": "^5.19.1",
    "@ionic/angular": "^4.11.8",
    "@ionic/pwa-elements": "^1.4.2",
    "@kolkov/angular-editor": "^0.13.1",
    "@ng-bootstrap/ng-bootstrap": "^4.2.2",
    "@ng-bootstrap/schematics": "^2.0.0-alpha.1",
    "@ng-idle/core": "^8.0.0-beta.4",
    "@ng-idle/keepalive": "^8.0.0-beta.4",
    "angular-moment": "^1.3.0",
    "angular-user-idle": "^2.2.1",
    "angular2-moment": "^1.9.0",
    "async": "^2.6.3",
    "bootstrap": "^4.4.1",
    "cordova-android": "^8.1.0",
    "cordova-browser": "^6.0.0",
    "cordova-ios": "^5.1.1",
    "cordova-plugin-compat": "^1.2.0",
    "cordova-plugin-device": "^2.0.3",
    "cordova-plugin-network-information": "^2.0.2",
    "cordova-plugin-networkinterface": "^2.0.0",
    "cordova-plugin-statusbar": "^2.4.3",
    "cordova-plugin-x-toast": "^2.7.2",
    "cordova-windows": "^7.0.1",
    "core-js": "^2.6.11",
    "dynamic-watermark": "^1.0.0",
    "electron-installer-windows": "^3.0.0",
    "electron-packager": "^14.2.1",
    "font-awesome": "^4.7.0",
    "ionic-tooltips": "^3.1.0",
    "jquery": "^3.4.1",
    "js-base64": "^2.5.1",
    "moment": "^2.24.0",
    "moment-timezone": "^0.5.27",
    "ng6-toastr-notifications": "^1.0.4",
    "ngx-doc-viewer": "^0.1.27",
    "ngx-order-pipe": "^2.0.4",
    "platform": "1.3.5",
    "popper.js": "^1.16.0",
    "rxjs": "^6.5.4",
    "rxjs-compat": "^6.5.4",
    "watermarkjs": "^2.1.1",
    "zone.js": "~0.8.29"
  },
  "devDependencies": {
    "@angular-devkit/architect": "~0.12.3",
    "@angular-devkit/build-angular": "^0.13.9",
    "@angular-devkit/core": "~7.2.3",
    "@angular-devkit/schematics": "~7.2.3",
    "@angular/cli": "~7.2.3",
    "@angular/compiler": "^7.2.16",
    "@angular/compiler-cli": "^7.2.16",
    "@angular/language-service": "^7.2.16",
    "@ionic/angular-toolkit": "~1.4.0",
    "@ionic/lab": "2.0.7",
    "@types/jasmine": "~2.8.8",
    "@types/jasminewd2": "^2.0.8",
    "@types/node": "~10.12.0",
    "codelyzer": "~4.5.0",
    "com-badrit-base64": "^0.2.0",
    "cordova-plugin-camera": "^4.1.0",
    "cordova-plugin-email-composer": "^0.9.2",
    "cordova-plugin-file": "^6.0.2",
    "cordova-plugin-file-transfer": "^1.7.1",
    "cordova-plugin-filechooser": "^1.2.0",
    "cordova-plugin-filepicker": "^1.1.6",
    "cordova-plugin-ionic-keyboard": "^2.0.5",
    "cordova-plugin-media-capture": "^3.0.3",
    "cordova-plugin-splashscreen": "5.0.2",
    "cordova-plugin-whitelist": "1.3.3",
    "electron": "^8.0.1",
    "jasmine-core": "~2.99.1",
    "jasmine-spec-reporter": "~4.2.1",
    "karma": "^4.4.1",
    "karma-chrome-launcher": "~2.2.0",
    "karma-coverage-istanbul-reporter": "^2.1.1",
    "karma-jasmine": "~1.1.2",
    "karma-jasmine-html-reporter": "^0.2.2",
    "phonegap-plugin-barcodescanner": "^8.1.0",
    "protractor": "~5.4.0",
    "ts-node": "~8.0.0",
    "tslint": "~5.12.0",
    "typescript": "~3.1.6"
  },
  "description": "An Ionic project",
  "cordova": {
    "plugins": {
      "cordova-plugin-network-information": {},
      "cordova-plugin-networkinterface": {},
      "cordova-plugin-device": {},
      "cordova-plugin-statusbar": {},
      "cordova-plugin-compat": {},
      "cordova-plugin-x-toast": {},
      "cordova-plugin-whitelist": {},
      "cordova-plugin-splashscreen": {},
      "cordova-plugin-ionic-keyboard": {},
      "cordova-plugin-camera": {
        "ANDROID_SUPPORT_V4_VERSION": "27.+"
      },
      "cordova-plugin-filepicker": {},
      "cordova-plugin-filechooser": {},
      "cordova-plugin-media-capture": {},
      "cordova-plugin-email-composer": {
        "ANDROID_SUPPORT_V4_VERSION": "27.+"
      },
      "com-badrit-base64": {},
      "phonegap-plugin-barcodescanner": {
        "ANDROID_SUPPORT_V4_VERSION": "27.+"
      },
      "cordova-plugin-file-transfer": {},
      "cordova-plugin-file": {}
    },
    "platforms": [
      "browser",
      "windows",
      "android",
      "ios"
    ]
  }
}
